s_0000ess0.dat | OK | ED
    s_0000ess0.btd | OK
        s_har0101.dat | OK
        s_har0102.dat | OK
        s_har0103.dat | OK
        s_har0201.dat | OK
        s_har0202.dat | OK
        s_har0203.dat | OK
        s_har0301.dat | OK
        s_har0302.dat | OK
        s_har0303.dat | OK
        s_har0401.dat | OK
        s_har0402.dat | OK
        s_har0403.dat | OK
        s_har0501.dat | OK
        s_har0502.dat | OK
        s_har0503.dat | OK
        s_tuto.dat
        s_har0801.dat
        s_har0802.dat
        s_har0803.dat
s_0000ess1.dat | OK
