-(IF ... )-(GOTO 14)-
-(IF ... )-(GOTO 15)-
-(IF ... )-(GOTO 24)-
-(IF ... )-(GOTO 33)-
-(IF ... )-(GOTO 42)-
-(GOTO 49)-
(LABEL 49)
 -( запустить 's_0011ess0.dat' )-
(LABEL 56)
 -( запустить 's_0099bad0.dat' )-

